{
  "1": [
    2504,
    2505
  ],
  "2": [
    2506,
    2507
  ],
  "3": [
    2508,
    2509
  ],
  "4": [
    2510,
    2511
  ],
  "5": [
    2512,
    2513
  ],
  "6": [
    2514,
    2515
  ],
  "7": [
    2516,
    2517
  ],
  "8": [
    2518,
    2519
  ],
  "9": [
    2520,
    2521
  ],
  "10": [
    2522,
    2523
  ],
  "11": [
    2524,
    2525
  ],
  "12": [
    2526,
    2527
  ],
  "13": [
    2528,
    2529
  ],
  "14": [
    2530,
    2531
  ],
  "15": [
    2532,
    2533
  ],
  "16": [
    2534,
    2535
  ],
  "17": [
    2536,
    2537
  ],
  "18": [
    2538,
    2539
  ],
  "19": [
    2540,
    2541
  ],
  "20": [
    2542,
    2543
  ],
  "21": [
    2544,
    2545
  ],
  "22": [
    2546,
    2547
  ],
  "23": [
    2548,
    2549
  ],
  "24": [
    2550,
    2551
  ],
  "25": [
    2552,
    2553
  ],
  "26": [
    2554,
    2555
  ],
  "27": [
    2556,
    2557
  ],
  "28": [
    2558,
    2559
  ],
  "29": [
    2560,
    2561
  ],
  "30": [
    2562,
    2563
  ],
  "31": [
    2564,
    2565
  ],
  "32": [
    2566,
    2567
  ],
  "33": [
    2568,
    2569
  ],
  "34": [
    2570,
    2571
  ],
  "35": [
    2572,
    2573
  ],
  "36": [
    2574,
    2575
  ],
  "37": [
    2576,
    2577
  ],
  "38": [
    2578,
    2579
  ],
  "39": [
    2580,
    2581
  ],
  "40": [
    2582,
    2583
  ],
  "41": [
    2584,
    2585
  ],
  "42": [
    2586,
    2587
  ],
  "43": [
    2588,
    2589
  ],
  "44": [
    2590,
    2591
  ],
  "45": [
    2592,
    2593
  ],
  "46": [
    2594,
    2595
  ],
  "47": [
    2596,
    2597
  ],
  "48": [
    2598,
    2599
  ],
  "49": [
    2600,
    2601
  ],
  "50": [
    2602,
    2603
  ],
  "51": [
    2604,
    2605
  ],
  "52": [
    2606,
    2607
  ],
  "53": [
    2608,
    2609
  ],
  "54": [
    2610,
    2611
  ],
  "55": [
    2612,
    2613
  ],
  "56": [
    2614,
    2615
  ],
  "57": [
    2616,
    2617
  ],
  "58": [
    2618,
    2619
  ],
  "59": [
    2620,
    2621
  ],
  "60": [
    2622,
    2623
  ],
  "61": [
    2624,
    2625
  ],
  "62": [
    2626,
    2627
  ],
  "63": [
    2628,
    2629
  ],
  "64": [
    2630,
    2631
  ],
  "65": [
    2632,
    2633
  ],
  "66": [
    2634,
    2635
  ],
  "67": [
    2636,
    2637
  ],
  "68": [
    2638,
    2639
  ],
  "69": [
    2640,
    2641
  ],
  "70": [
    2642,
    2643
  ],
  "71": [
    2644,
    2645
  ],
  "72": [
    2646,
    2647
  ],
  "73": [
    2648,
    2649
  ],
  "74": [
    2650,
    2651
  ],
  "75": [
    2652,
    2653
  ],
  "76": [
    2654,
    2655
  ],
  "77": [
    2656,
    2657
  ],
  "78": [
    2658,
    2659
  ],
  "79": [
    2660,
    2661,
    2662
  ]
}