{
  "1": [
    33250,
    33251
  ],
  "2": [
    33237,
    33238,
    33239
  ],
  "3": [
    33240,
    33241,
    33242
  ],
  "4": [
    33243,
    33244,
    33245
  ],
  "5": [
    33246,
    33247,
    33248,
    33249
  ]
}